Exploration of fish operation data
…
#>  1 20724    8609  1999     7   1595    22      2  17.5  1872. complete    
#>  2 20740    8609  2001     7    205    17      1  20    4000  complete    
#>  3 20794    8609  1997     5    560    18      1   9     801  complete    
#>  4 20798    8609  1998     6    416    16      2  20    2400  complete    
#>  5 20868    8609  2000     7    167    18      1  NA     143  ambiances   
#>  6 21155    8609  2002     6    506    19      1  24.7  6680. complete    
#>  7 21164    8609  2003     6    379    20      1 203   60900  complete    
#>  8 21297    8609  2004     6    439    14      1  21.7   250  ambiances   
#>  9 21505    8609  2005     5    258    17      1  21.7   296  ambiances   
#> 10 21687    8609  2006     6    310    20      1  21.7   300  ambiances   
#> 11 24948    8609  2009     7    137    15      1  19     938. point_big_m…
#> 12 27836    8609  2010     8    434    16      1  28.5   938. point_big_m…
#> # ... with 1 more variable: strategy <chr>
filter(st_method, station == 2952)
#> # A tibble: 30 x 11
#>    opcod station  year month nb_ind nb_sp nbpass width  surf method       
#>    <int>   <int> <int> <int>  <int> <int>  <int> <dbl> <dbl> <chr>        
#>  1  7563    2952  1986    10     80     7      1   150   540 partial_over…
#>  2  7564    2952  1986    10     27     5      1   150     0 partial_over…
#>  3  7625    2952  1988     6    176    10      1   140   800 partial_over…
#>  4  7655    2952  1985     4     31     7      1   150   800 partial_over…
#>  5  7658    2952  1985     6     64     9      1   115   800 partial_over…
#>  6  7659    2952  1985     8    175    12      1   120   540 partial_over…
#>  7  7660    2952  1985    10     80     4      1   150     0 partial_over…
#>  8  7733    2952  1987     6    115    10      1   130  1000 partial_over…
#>  9  7740    2952  1987     9    119     7      1   130  1000 partial_over…
#> 10  7741    2952  1987     9     33     6      1   140 15000 partial_over…
#> # ... with 20 more rows, and 1 more variable: strategy <chr>
## It seems that it is some keyboard errors

# It seems that some sampled surfaces are really big:
filter(st_method, width > 300)
#> # A tibble: 21 x 11
#>    opcod station  year month nb_ind nb_sp nbpass width  surf method       
#>    <int>   <int> <int> <int>  <int> <int>  <int> <dbl> <dbl> <chr>        
#>  1  1404     179  2004     6     86    10      1   500  874  ambiances    
#>  2 10379    3907  1996     6   1172    16      1   350    0  ambiances    
#>  3 11115    3907  1997     6    626    17      1   350    0  ambiances    
#>  4 11322    3907  1998     6    717    16      1   350    0  ambiances    
#>  5 11362    3907  1999     6    499    17      1   350    0  ambiances    
#>  6 11588    3942  2005     6    950    17      1   400 1250  point_big_mil
#>  7 11606    3942  2006     6    843    16      1   400 1250  point_big_mil
#>  8 11719    3942  2007     6   1971    19      1   420 1250  point_big_mil
#>  9 18270    7530  1997     9    716    14      1   500  790  ambiances    
#> 10 18276    7530  1999     9    281    16      1   500  526. ambiances    
#> # ... with 11 more rows, and 1 more variable: strategy <chr>
…
